ait,025ea450-f186-4aa1-9c72-61f74ff67432,Android (Native),4e7b86ac-ab20-424c-b338-756ed618375a,hardskill
ait,06b181e4-8361-4883-917c-bbace87008b8,Interstage,c1d21006-5e13-49a3-afa3-8a20ac968ab8,hardskill
ait,0a863c51-b31d-45fc-b987-331fc0812ed3,Giải quyết vấn đề,,softskill
ait,0c067d9b-d009-4df3-afa9-71f7f5d282b9,Quản lý xung đột,,softskill
ait,108979a0-4ed7-4901-90ba-fc76a744858b,Typescript,4e7b86ac-ab20-424c-b338-756ed618375a,hardskill
ait,115485e1-aa72-43a7-93b9-44bde9294f73,SQL,743483ee-940d-4079-9d42-98b3808374bc,hardskill
ait,18da81ec-2aae-4f8b-ad85-bf709498f60c,Framework,,hardskill
ait,1d81f997-421b-4d59-84a2-75e7a2905bf4,HTML5,4e7b86ac-ab20-424c-b338-756ed618375a,hardskill
ait,216b4767-cda9-4acf-93f8-853572eede16,C/C++,4e7b86ac-ab20-424c-b338-756ed618375a,hardskill
ait,21ee6828-7776-4e0e-bfa4-1fe9792b4919,Crytal Report,29809149-41ca-4691-a417-a7dd3c8ccccd,hardskill
ait,234b335f-1242-434f-8ebc-065da36fdadc,C#,4e7b86ac-ab20-424c-b338-756ed618375a,hardskill
ait,29809149-41ca-4691-a417-a7dd3c8ccccd,Tools phát triển,,hardskill
ait,2b9b779f-fa4c-4224-a1fd-e14d60592455,Java EE,18da81ec-2aae-4f8b-ad85-bf709498f60c,hardskill
ait,2e594c4e-879f-414e-8a16-458658f818ec,Network,c1d21006-5e13-49a3-afa3-8a20ac968ab8,hardskill
ait,2f1bc631-fa6a-487b-8f75-06b177d1873e,IOS (Swift),4e7b86ac-ab20-424c-b338-756ed618375a,hardskill
ait,2ffcf038-9bc5-4c98-b21c-acf153abfb15,Quản lý thời gian,,softskill
ait,301f74cb-4612-4f60-9343-2d5c2c280d47,Tư duy hệ thống,,softskill
ait,3ea14e27-be27-4e6d-81d5-fa5f8e0f4e53,Python,4e7b86ac-ab20-424c-b338-756ed618375a,hardskill
ait,3fb508e3-5c01-4c95-9899-53d5f8331e63,Postgre,743483ee-940d-4079-9d42-98b3808374bc,hardskill
ait,4170c0ae-e51e-4527-a97d-87780c58ce15,XML,4e7b86ac-ab20-424c-b338-756ed618375a,hardskill
ait,426d664f-2540-4190-a696-cefc4b306c93,Communication,,softskill
ait,47b26110-927f-4e31-9f19-e6e409fa473c,Spring,18da81ec-2aae-4f8b-ad85-bf709498f60c,hardskill
ait,4ac3f294-e188-4dad-aa86-755bd778ef25,Đàm phán,,softskill
ait,4e7b86ac-ab20-424c-b338-756ed618375a,ngôn ngữ lập trình,,hardskill
ait,4fc592dc-97ee-48a8-ab09-cef51d93a06a,SVN,29809149-41ca-4691-a417-a7dd3c8ccccd,hardskill
ait,4ff1920b-4c86-42e3-b22e-4c27d80b619f,Ubuntu,c1d21006-5e13-49a3-afa3-8a20ac968ab8,hardskill
ait,50d31168-39d6-4009-9f9c-064f6b584ed3,Java,4e7b86ac-ab20-424c-b338-756ed618375a,hardskill
ait,527a6218-619e-4cd2-bf88-7968d060a766,.NET framework,18da81ec-2aae-4f8b-ad85-bf709498f60c,hardskill
ait,53506f16-bc74-480d-9820-f521eb004699,Tư duy sáng tạo,,softskill
ait,53f82598-dfde-4a6a-a666-229728731511,Viết báo cáo,,softskill
ait,550ea68c-bd2c-4c90-b8ea-4ded38392c5f,Làm việc nhóm,,softskill
ait,586e0fc2-98ca-4e08-a83e-b4cd9b5b9aa3,Apache HTTP Server,c1d21006-5e13-49a3-afa3-8a20ac968ab8,hardskill
ait,5e9caf12-7be1-4b81-8670-63208a5a4ae2,Lập kế hoạch và tổ chức công việc,,softskill
ait,5fdd2867-06bc-4747-8385-701a144b5480,CentOS,c1d21006-5e13-49a3-afa3-8a20ac968ab8,hardskill
ait,631dcfd9-06c3-4104-833f-89ea77757cf0,CSS,4e7b86ac-ab20-424c-b338-756ed618375a,hardskill
ait,63de14cb-b7a1-46b5-9610-16968290ab8b,Oracle,743483ee-940d-4079-9d42-98b3808374bc,hardskill
ait,6e1f3c51-ce6e-402f-bdd9-25e24f051b41,.NET,4e7b86ac-ab20-424c-b338-756ed618375a,hardskill
ait,6e4d6aeb-e97a-4308-8e28-e18f3d9c0ee4,Ra quyết định,,softskill
ait,705f9171-b104-4d0e-8d82-3077c5358522,Visual Studio,29809149-41ca-4691-a417-a7dd3c8ccccd,hardskill
ait,70983172-f9a0-48e1-a6db-3bde26852c57,IIS,c1d21006-5e13-49a3-afa3-8a20ac968ab8,hardskill
ait,743483ee-940d-4079-9d42-98b3808374bc,Cơ sở dữ liệu,,hardskill
ait,753449d4-47a2-40df-aae4-2de856801668,Ionic,18da81ec-2aae-4f8b-ad85-bf709498f60c,hardskill
ait,78e3e2ab-40ac-4944-ada9-c8a1efb8581a,HTML,4e7b86ac-ab20-424c-b338-756ed618375a,hardskill
ait,7e848878-1a57-4e05-a783-396c1060b588,PHP,4e7b86ac-ab20-424c-b338-756ed618375a,hardskill
ait,7fe96964-874c-48ec-aabe-4c2962d2fa76,Window Server,c1d21006-5e13-49a3-afa3-8a20ac968ab8,hardskill
ait,849eeb8b-fd4a-4904-89ec-ff1869ed59dc,SCSS,4e7b86ac-ab20-424c-b338-756ed618375a,hardskill
ait,9e221358-0f81-4dce-8a2a-aac4c324053c,Quản lý thay đổi,,softskill
ait,a491f32a-c807-4544-a58a-d61cb069ef93,Wildfly,c1d21006-5e13-49a3-afa3-8a20ac968ab8,hardskill
ait,a668ac1b-bdfa-4ebd-b499-4293cb90dc00,IOS (Objective C),4e7b86ac-ab20-424c-b338-756ed618375a,hardskill
ait,a9bf5d83-06e8-40d1-a892-b36fb2a3fc03,VB6,4e7b86ac-ab20-424c-b338-756ed618375a,hardskill
ait,ab4a1219-d9bc-4645-a1e1-fb063d0c485f,Eclipse,29809149-41ca-4691-a417-a7dd3c8ccccd,hardskill
ait,b0649b3f-ddf2-413b-ab5a-4ba3855bb968,Struts,18da81ec-2aae-4f8b-ad85-bf709498f60c,hardskill
ait,c06953f8-4ed5-4175-9480-ff31a076bba5,SQLServer,743483ee-940d-4079-9d42-98b3808374bc,hardskill
ait,c1d21006-5e13-49a3-afa3-8a20ac968ab8,OS/ Server,,hardskill
ait,c691e459-af12-49f4-a94b-0855a84a7a51,MySQL,743483ee-940d-4079-9d42-98b3808374bc,hardskill
ait,cba1311a-0003-4cd7-bb56-058a2dcbb542,iReport Designer,29809149-41ca-4691-a417-a7dd3c8ccccd,hardskill
ait,d1c11f27-91ba-4396-87d3-e4385cc39fa4,Apache Tomcat,c1d21006-5e13-49a3-afa3-8a20ac968ab8,hardskill
ait,d4a9c365-6595-41c7-9cc5-ae179cf45c1f,Cobol,4e7b86ac-ab20-424c-b338-756ed618375a,hardskill
ait,dfc104bd-8c28-48c3-8afb-ff603cf62f54,Ruby,4e7b86ac-ab20-424c-b338-756ed618375a,hardskill
ait,e00accea-3e7e-457c-b5b2-4fd1abc338a6,Glassfish,c1d21006-5e13-49a3-afa3-8a20ac968ab8,hardskill
ait,ecf10bf5-8e14-4ad5-85d1-ad643b61c984,Bootstrap,18da81ec-2aae-4f8b-ad85-bf709498f60c,hardskill
ait,f9691e94-80cb-4257-b5b6-3fa27a3ef3cd,Java Server Faces (JSF),18da81ec-2aae-4f8b-ad85-bf709498f60c,hardskill
ait,fa0e94e9-df62-4852-b796-959a7f2ffcf7,Angular,4e7b86ac-ab20-424c-b338-756ed618375a,hardskill
ait,fa8c0099-0608-4b64-896d-e9fd2b192a2d,MongoDB,743483ee-940d-4079-9d42-98b3808374bc,hardskill
ait,ffe40c7e-940e-44b3-83ff-abcbe253bd63,GIT,29809149-41ca-4691-a417-a7dd3c8ccccd,hardskill
ait,ffe545b0-3645-4121-806c-87bdd054fdf0,Javascript,4e7b86ac-ab20-424c-b338-756ed618375a,hardskill
